2015,1,01,10
2015,1,02,6
2015,1,03,23
2015,1,04,12
2015,1,05,11
2015,1,06,26
2015,1,07,2
2015,1,08,12
2015,1,09,31
2015,1,10,28
2015,1,11,23
2015,1,12,21
2015,1,13,5
2015,1,14,8
2015,1,15,1
2015,1,16,24
2015,1,17,23
2015,1,18,8
2015,1,19,19
2015,1,20,24
2015,1,21,24
2015,1,22,13
2015,1,23,23
2015,1,24,9
2015,1,25,1
2015,1,26,17
2015,1,27,30
2015,1,28,4
2015,1,29,5
2015,1,30,25
2015,2,01,9
2015,2,02,2
2015,2,03,10
2015,2,04,24
2015,2,05,25
2015,2,06,13
2015,2,07,6
2015,2,08,31
2015,2,09,12
2015,2,10,15
2015,2,11,16
2015,2,12,26
2015,2,13,13
2015,2,14,13
2015,2,15,10
2015,2,16,17
2015,2,17,20
2015,2,18,2
2015,2,19,20
2015,2,20,12
2015,2,21,27
2015,2,22,10
2015,2,23,27
2015,2,24,23
2015,2,25,22
2015,2,26,25
2015,2,27,30
2015,2,28,3
2015,2,29,29
2015,2,30,24
2015,3,01,14
2015,3,02,26
2015,3,03,19
2015,3,04,4
2015,3,05,15
2015,3,06,25
2015,3,07,11
2015,3,08,20
2015,3,09,5
2015,3,10,8
2015,3,11,11
2015,3,12,25
2015,3,13,3
2015,3,14,22
2015,3,15,21
2015,3,16,6
2015,3,17,14
2015,3,18,25
2015,3,19,26
2015,3,20,4
2015,3,21,1
2015,3,22,8
2015,3,23,26
2015,3,24,18
2015,3,25,24
2015,3,26,7
2015,3,27,26
2015,3,28,11
2015,3,29,9
2015,3,30,5